<define-tag pagetitle>DLA-3077-1 ruby-tzinfo</define-tag>
<define-tag report_date>2022-08-18</define-tag>
<define-tag secrefs>CVE-2022-31163</define-tag>
<define-tag packages>ruby-tzinfo</define-tag>
<define-tag isvulnerable>yes</define-tag>
<define-tag fixed>yes</define-tag>
<define-tag fixed-section>no</define-tag>

#use wml::debian::security
