<define-tag pagetitle>DLA-3249-1 mbedtls</define-tag>
<define-tag report_date>2022-12-26</define-tag>
<define-tag secrefs>CVE-2019-16910 CVE-2019-18222 CVE-2020-10932 CVE-2020-10941 CVE-2020-16150 CVE-2020-36421 CVE-2020-36422 CVE-2020-36423 CVE-2020-36424 CVE-2020-36425 CVE-2020-36426 CVE-2020-36475 CVE-2020-36476 CVE-2020-36478 CVE-2021-24119 CVE-2021-43666 CVE-2021-44732 CVE-2022-35409 Bug#941265 Bug#963159 Bug#972806 Bug#1002631</define-tag>
<define-tag packages>mbedtls</define-tag>
<define-tag isvulnerable>yes</define-tag>
<define-tag fixed>yes</define-tag>
<define-tag fixed-section>no</define-tag>

#use wml::debian::security

