<define-tag pagetitle>DLA-3103-1 zlib</define-tag>
<define-tag report_date>2022-09-12</define-tag>
<define-tag secrefs>CVE-2022-37434 Bug#1016710</define-tag>
<define-tag packages>zlib</define-tag>
<define-tag isvulnerable>yes</define-tag>
<define-tag fixed>yes</define-tag>
<define-tag fixed-section>no</define-tag>

#use wml::debian::security

