<define-tag pagetitle>DLA-2965-1 cacti</define-tag>
<define-tag report_date>2022-03-29</define-tag>
<define-tag secrefs>CVE-2018-10060 CVE-2018-10061 CVE-2019-11025 CVE-2020-7106 CVE-2020-13230 CVE-2020-23226 CVE-2021-23225 CVE-2022-0730 Bug#926700 Bug#949996</define-tag>
<define-tag packages>cacti</define-tag>
<define-tag isvulnerable>yes</define-tag>
<define-tag fixed>yes</define-tag>
<define-tag fixed-section>no</define-tag>

#use wml::debian::security

