<define-tag pagetitle>DSA-4999-1 asterisk</define-tag>
<define-tag report_date>2021-11-01</define-tag>
<define-tag secrefs>CVE-2021-32558 CVE-2021-32686 Bug#991710 Bug#991931</define-tag>
<define-tag packages>asterisk</define-tag>
<define-tag isvulnerable>yes</define-tag>
<define-tag fixed>yes</define-tag>
<define-tag fixed-section>no</define-tag>

#use wml::debian::security



</dl>
