<define-tag pagetitle>DSA-4861-1 screen</define-tag>
<define-tag report_date>2021-2-21</define-tag>
<define-tag secrefs>CVE-2021-26937 Bug#982435</define-tag>
<define-tag packages>screen</define-tag>
<define-tag isvulnerable>yes</define-tag>
<define-tag fixed>yes</define-tag>
<define-tag fixed-section>no</define-tag>

#use wml::debian::security



</dl>
