    1	Aaron M. Ucko 	ucko 
    2	Abhijith PA 	abhijith 
    3	Adam Borowski 	kilobyte 
    4	Adam D. Barratt 	adsb 
    5	Adam Majer 	adamm 
    6	Adam Powell 	hazelsct 
    7	Adrian Bunk 	bunk 
    8	Adrian Perez 	blackxored 
    9	Adriano Rafael Gomes 	adrianorg 
   10	Afif Elghraoui 	afif 
   11	Agustin Henze 	tin 
   12	Agustín Martín Domingo 	agmartin 
   13	Aigars Mahinovs 	aigarius 
   14	Akira Ohashi 	bg66 
   15	Akira Yamada 	akira 
   16	Alan Woodland 	awoodland 
   17	Alastair McKinstry 	mckinstry 
   18	Alban Vidal 	zordhak 
   19	Albert Huang 	ash 
   20	Alberto Garcia 	berto 
   21	Alberto Gonzalez Iniesta 	agi 
   22	Albin Tonnerre 	lutin 
   23	Alejandro Garrido Mota 	alejandro 
   24	Alen Zekulic 	azekulic 
   25	Alessandro Ghedini 	ghedo 
   26	Alessio Treglia 	alessio 
   27	Alex Muntada 	alexm 
   28	Alex Pennace 	alexp 
   29	Alexander Chernyakhovsky 	achernya 
   30	Alexander GQ Gerasiov 	gq 
   31	Alexander List 	alex 
   32	Alexander Sack 	asac 
   33	Alexander Wirt 	formorer 
   34	Alexander Zangerl 	az 
   35	Alexandre Delanoë 	anoe 
   36	Alexandre Mestiashvili 	mestia 
   37	Alexandre Viau 	aviau 
   38	Alexei Nikolov 	clown 
   39	Allison Randal 	wendar 
   40	Aloïs Micard 	creekorful 
   41	Amaya Rodrigo Sastre 	amaya 
   42	Amos Waterland 	apw 
   43	Ana Beatriz Guerrero López 	ana 
   44	Ana Carolina Comandulli 	caroll 
   45	Ana Custura 	acute 
   46	Anders Hammarquist 	iko 
   47	Andre Luis Lopes 	andrelop 
   48	Andrea Capriotti 	capriott 
   49	Andrea Colangelo 	warp10 
   50	Andrea Mennucci 	mennucc1 
   51	Andreas B. Mundt 	andi 
   52	Andreas Barth 	aba 
   53	Andreas Beckmann 	anbe 
   54	Andreas Boll 	aboll 
   55	Andreas E. Bombe 	aeb 
   56	Andreas Franzen 	anfra 
   57	Andreas Henriksson 	ah 
   58	Andreas Metzler 	ametzler 
   59	Andreas Rönnquist 	gusnan 
   60	Andreas Tille 	tille 
   61	Andree Leidenfrost 	andree 
   62	Andrej Shadura 	andrewsh 
   63	Andres Salomon 	dilinger 
   64	Andrew Lee 	ajqlee 
   65	Andrew Martin Adrian Cater 	amacater 
   66	Andrew McMillan 	awm 
   67	Andrew Mitchell 	ajmitch 
   68	Andrew Pollock 	apollock 
   69	Andrew Starr-Bochicchio 	asb 
   70	Andrey Rahmatullin 	wrar 
   71	Andrius Merkys 	merkys 
   72	Andrés Roldán 	aroldan 
   73	Andy Li 	andyli 
   74	Andy Simpkins 	rattusrattus 
   75	Angel Abad 	angel 
   76	Angel Ramos 	seamus 
   77	Angus Lees 	gus 
   78	Anibal Monsalve Salazar 	anibal 
   79	Anselm Lingnau 	lingnau 
   80	Ansgar 	ansgar 
   81	Anthony Fok 	foka 
   82	Anthony Towns 	ajt 
   83	Antoine Beaupré 	anarcat 
   84	Anton Gladky 	gladk 
   85	Anton Zinoviev 	zinoviev 
   86	Antonin Kral 	krala 
   87	Antonio Radici 	antonio 
   88	Antonio Terceiro 	terceiro 
   89	Anuradha Weeraman 	anuradha 
   90	Apollon Oikonomopoulos 	apoikos 
   91	Ardo van Rangelrooij 	ardo 
   92	Ari Pollak 	ari 
   93	Arnaud Fontaine 	arnau 
   94	Arno Töll 	arno 
   95	Aron Xu 	aron 
   96	Arthur de Jong 	adejong 
   97	Arto Jantunen 	viiru 
   98	Arturo Borrero González 	arturo 
   99	Asheesh Laroia 	paulproteus 
  100	Asias He 	asias 
  101	Atsushi Kamoshida 	kamop 
  102	Attila Szalay 	sasa 
  103	Aurelien Jarno 	aurel32 
  104	Aurélien Couderc 	coucouf 
  105	Axel Beckert 	abe 
  106	Balasankar Chelamattathu 	balasankarc 
  107	Balint Reczey 	rbalint 
  108	Baptiste Beauplat 	lyknode 
  109	Barak A. Pearlmutter 	bap 
  110	Barry deFreese 	bdefreese 
  111	Bart Martens 	bartm 
  112	Bartosz Fenski 	fenio 
  113	Bas Wijnen 	wijnen 
  114	Bas Zoetekouw 	bas 
  115	Bastian Blank 	waldi 
  116	Bastian Germann 	bage 
  117	Bastian Venthur 	venthur 
  118	Bastien Roucariès 	rouca 
  119	Bdale Garbee 	bdale 
  120	Ben Armstrong 	synrg 
  121	Ben Burton 	bab 
  122	Ben Finney 	bignose 
  123	Ben Hutchings 	benh 
  124	Benda Xu 	orv 
  125	Benjamin Barenblat 	bbaren 
  126	Benjamin Drung 	bdrung 
  127	Benjamin Hill 	mako 
  128	Benjamin Mesing 	ben 
  129	Bernd Schumacher 	bs 
  130	Bernd Zeimetz 	bzed 
  131	Bernhard R. Link 	brlink 
  132	Bernhard Schmidt 	berni 
  133	Bertrand Marc 	bmarc 
  134	Bill Allombert 	ballombe 
  135	Birger Schacht 	birger 
  136	Boris Pek 	tehnick 
  137	Boyuan Yang 	byang 
  138	Bradley Bosch 	brad 
  139	Branden Robinson 	branden 
  140	Brendan O'Dea 	bod 
  141	Breno Leitao 	leitao 
  142	Brian Gupta 	bgupta 
  143	Brian May 	bam 
  144	Brian Pellin 	bpellin 
  145	Brian Ristuccia 	brianr 
  146	Brian Thomason 	iamfuzz 
  147	Brian White 	bcwhite 
  148	Brice Goglin 	bgoglin 
  149	Bruno Kleinert 	fuddl 
  150	Cameron Dale 	camrdale 
  151	Camm Maguire 	camm 
  152	Carl Chenet 	chaica 
  153	Carl Worth 	cworth 
  154	Carlo U. Segre 	segre 
  155	Carlos Laviola 	claviola 
  156	Carsten Hey 	carsten 
  157	Carsten Leonhardt 	leo 
  158	Carsten Schoenert 	tijuca 
  159	ChangZhuo Chen 	czchen 
  160	Changwoo Ryu 	cwryu 
  161	Charles Plessy 	plessy 
  162	Chen Baozi 	baozich 
  163	Chris Boot 	bootc 
  164	Chris Boyle 	cmb 
  165	Chris Halls 	halls 
  166	Chris Lamb 	lamby 
  167	Christian Bayle 	bayle 
  168	Christian Ehrhardt 	paelzer 
  169	Christian Hofstaedtler 	zeha 
  170	Christian Hudon 	chrish 
  171	Christian Kastner 	ckk 
  172	Christian Marillat 	marillat 
  173	Christian T. Steigies 	cts 
  174	Christine Christine Spang 	christine 
  175	Christoph Berg 	myon 
  176	Christoph Biedl 	cbiedl 
  177	Christoph Egger 	christoph 
  178	Christoph Göhre 	gris 
  179	Christoph Haas 	haas 
  180	Christoph Martin 	chrism 
  181	Christopher Knadle 	krait 
  182	Christopher L. Cheney 	ccheney 
  183	Christopher Lawrence 	lawrencc 
  184	Christopher Stuart Hoskin 	mans0954 
  185	Christopher Taylor 	ctaylor 
  186	Christos Trochalakis 	ctrochalakis 
  187	Chrysostomos Nanakos 	cnanakos 
  188	Chuan-kai Lin 	cklin 
  189	Claire Connelly 	cmc 
  190	Clint Adams 	clint 
  191	Clint Byrum 	spamaps 
  192	Clément Hermann 	nodens 
  193	Colin Watson 	cjwatson 
  194	Cord Beermann 	cord 
  195	Craig Sanders 	cas 
  196	Craig Small 	csmall 
  197	Cyril Bouthors 	cyb 
  198	Cyril Brulebois 	kibi 
  199	Cédric Boutillier 	boutil 
  200	Cédric Delfosse 	cedric 
  201	Daisuke Higuchi 	dai 
  202	Dale Martin 	dmartin 
  203	Damyan Ivanov 	dmn 
  204	Danai Sae-Han 	danai 
  205	Daniel Baumann 	daniel 
  206	Daniel Echeverry 	epsilon 
  207	Daniel Glassey 	wdg 
  208	Daniel Kahn Gillmor 	dkg 
  209	Daniel Lange 	dlange 
  210	Daniel Leidert 	dleidert 
  211	Daniel Lenharo de Souza 	lenharo 
  212	Daniel Schepler 	schepler 
  213	Daniel Silverstone 	dsilvers 
  214	Daniel Swarbrick 	dswarbrick 
  215	Daniele Tricoli 	eriol 
  216	Dann Frazier 	dannf 
  217	Dario Minnucci 	midget 
  218	Dariusz Dwornikowski 	darek 
  219	Dave Beckett 	dajobe 
  220	Dave Holland 	dave 
  221	David Bremner 	bremner 
  222	David I. Lehn 	dlehn 
  223	David Kalnischkies 	donkult 
  224	David L. Coe 	davidc 
  225	David Nusinow 	dnusinow 
  226	David Paleino 	dapal 
  227	David Prévot 	taffit 
  228	David Steele 	steele 
  229	David Suárez Rodríguez 	deiv 
  230	David Watson 	dwatson 
  231	David Weinehall 	tao 
  232	Davide G.M. Salvetti 	salve 
  233	Davide Puricelli 	evo 
  234	Deepak Tripathi 	deepak 
  235	Denis Barbier 	barbier 
  236	Denis Briand 	denis 
  237	Dennis L. Clark 	dbugger 
  238	Diane Trout 	diane 
  239	Didier 'OdyX' Raboud 	odyx 
  240	Dima Barsky 	dima 
  241	Dima Kogan 	dkogan 
  242	Dimitri Ledkov 	xnox 
  243	Dirk Eddelbuettel 	edd 
  244	Dmitry Borodaenko 	angdraug 
  245	Dmitry Oboukhov 	unera 
  246	Dmitry Shachnev 	mitya57 
  247	Dmitry Smirnov 	onlyjob 
  248	Domenico Andreoli 	cavok 
  249	Dominic Hargreaves 	dom 
  250	Dominik George 	natureshadow 
  251	Dominique Belhachemi 	domibel 
  252	Dominique Dumont 	dod 
  253	Don Armstrong 	don 
  254	Donald Norwood 	donald 
  255	Douglas Andrew Torrance 	dtorrance 
  256	Drake Diedrich 	dld 
  257	Drew Parsons 	dparsons 
  258	Dylan Aïssi 	daissi 
  259	Ean Schuessler 	ean 
  260	Ed Boraas 	ed 
  261	Edelhard Becker 	edelhard 
  262	Eduard Bloch 	blade 
  263	Eduardo Trápani 	mapache 
  264	Edward Betts 	edward 
  265	Eike Sauer 	eike 
  266	Elana Hashman 	ehashman 
  267	Elena Grandi 	valhalla 
  268	Eloy A. Paris 	peloy 
  269	Emanuele Rocca 	ema 
  270	Emfox Zhou 	emfox 
  271	Emilio Pozuelo Monfort 	pochu 
  272	Emmanuel Bourg 	ebourg 
  273	Emmanuel Bouthenot 	kolter 
  274	Emmanuel Kasper Kasprzyk 	manu 
  275	Enrico Zini 	enrico 
  276	Eric Delaunay 	delaunay 
  277	Eric Dorland 	eric 
  278	Eric Evans 	eevans 
  279	Eric Sharkey 	sharkey 
  280	Erich Schubert 	erich 
  281	Erik Schanze 	eriks 
  282	Erik Wenzel 	erik 
  283	Erinn Clark 	erinn 
  284	Eugene V. Lyubimkin 	jackyf 
  285	Eugeniy Meshcheryakov 	eugen 
  286	Evgeni Golov 	evgeni 
  287	Fabian Fagerholm 	fabbe 
  288	Fabian Greffrath 	fabian 
  289	Fabio Augusto De Muzio Tobich 	ftobich 
  290	Fabio Tranchitella 	kobold 
  291	Faidon Liambotis 	paravoid 
  292	Falk Hueffner 	falk 
  293	Fathi Boudra 	fabo 
  294	Federico Ceratto 	federico 
  295	Federico Di Gregorio 	fog 
  296	Felipe Augusto van de Wiel 	faw 
  297	Felipe Sateler 	fsateler 
  298	Felix Geyer 	fgeyer 
  299	Felix Lechner 	lechner 
  300	Ferenc Wágner 	wferi 
  301	Filippo Giunchedi 	filippo 
  302	Filippo Rusconi 	lopippo 
  303	Florian Ernst 	florian 
  304	Florian Hinzmann 	fh 
  305	Florian Lohoff 	flo 
  306	Florian Schlichting 	fsfs 
  307	Florian Weimer 	fw 
  308	Francesca Ciceri 	madamezou 
  309	Francesco Lovergine 	frankie 
  310	Francesco Namuri 	franam 
  311	Francisco Manuel García Claramonte 	francisco 
  312	Francois Marier 	francois 
  313	Frank Küster 	frank 
  314	Frank Lichtenheld 	djpig 
  315	Frederic Peters 	fpeters 
  316	Fredrik Hallenberg 	hallon 
  317	Free Ekanayaka 	freee 
  318	Frédéric Bonnard 	frediz 
  319	Frédéric-Emmanuel Picca 	picca 
  320	Félix Sipma 	felix 
  321	Gabriel F. T. Gomes 	gabriel 
  322	Gard Spreemann 	gspr 
  323	Gaudenz Steinlin 	gaudenz 
  324	Geert Stappers 	stappers 
  325	Gennaro Oliva 	oliva 
  326	Georg Faerber 	georg 
  327	George Danchev 	danchev 
  328	Georges Khaznadar 	georgesk 
  329	Gerrit Pape 	pape 
  330	Gert Wollny 	gewo 
  331	Giacomo Catenazzi 	cate 
  332	Gianfranco Costamagna 	locutusofborg 
  333	Gilles Filippini 	pini 
  334	Giovani Augusto Ferreira 	giovani 
  335	Giovanni Mascellani 	gio 
  336	Giuseppe Sacco 	eppesuig 
  337	Gleydson Mazioli da Silva 	gleydson 
  338	Goedson Teixeira Paixao 	goedson 
  339	Gonéri Le Bouder 	goneri 
  340	Gordon Ball 	chronitis 
  341	Graham Inggs 	ginggs 
  342	Gregor Herrmann 	gregoa 
  343	Gregory Colpart 	reg 
  344	Guido Guenther 	agx 
  345	Guido Trotter 	ultrotter 
  346	Guilhem Moulin 	guilhem 
  347	Guillem Jover 	guillem 
  348	Gunnar Hjalmarsson 	gunnarhj 
  349	Gunnar Wolf 	gwolf 
  350	Gustavo Franco 	stratus 
  351	Gustavo Noronha 	kov 
  352	Gustavo Panizzo 	gfa 
  353	Guus Sliepen 	guus 
  354	Göran Weinholt 	weinholt 
  355	Gürkan Myczko 	tar 
  356	HAYASHI Kentaro 	kenhys 
  357	Hakan Ardo 	hakan 
  358	Hannes von Haugwitz 	hvhaugwitz 
  359	Hanno Wagner 	wagner 
  360	Hans-Christoph Steiner 	eighthave 
  361	Harlan Lieberman-Berg 	hlieberman 
  362	Harshula Jayasuriya 	harshula 
  363	Hector Garcia 	hector 
  364	Hector Oron 	zumbi 
  365	Heiko Stübner 	mmind 
  366	Helen Faulkner 	helen 
  367	Helge Deller 	deller 
  368	Helmut Grohne 	helmutg 
  369	Henning Glawe 	glaweh 
  370	Henrique de Moraes Holschuh 	hmh 
  371	Hideki Yamane 	henrich 
  372	Hilko Bengen 	bengen 
  373	Holger Levsen 	holger 
  374	Holger Wansing 	holgerw 
  375	Hubert Chan 	uhoreg 
  376	Hugo Lefeuvre 	hle 
  377	Hwei Sheng Teoh 	hsteoh 
  378	IOhannes m zmölnig 	umlaeute 
  379	Iain Lane 	laney 
  380	Ian Beckwith 	ianb 
  381	Ian Jackson 	iwj 
  382	Ian James Campbell 	ijc 
  383	Ian Wienand 	ianw 
  384	Ilias Tsitsimpis 	iliastsi 
  385	Iustin Pop 	iustin 
  386	Ivan Kohler 	ivan 
  387	Ivo De Decker 	ivodd 
  388	Jaakko Niemi 	liiwi 
  389	Jaime Robles 	jaime 
  390	Jakob Haufe 	sur5r 
  391	Jakub Wilk 	jwilk 
  392	Jaldhar H. Vyas 	jaldhar 
  393	James Bromberger 	jeb 
  394	James Cowgill 	jcowgill 
  395	James Downing Page 	jamespage 
  396	James McCoy 	jamessan 
  397	James Troup 	troup 
  398	James Valleroy 	jvalleroy 
  399	Jamie Wilkinson 	jaq 
  400	Jan Dittberner 	jandd 
  401	Jan Hauke Rahm 	jhr 
  402	Jan Lübbe 	jluebbe 
  403	Jan Niehusmann 	jan 
  404	Jan Wagner 	waja 
  405	Jason Thomas 	jason 
  406	Javier Fernandez-Sanguino Peña 	jfs 
  407	Javier Merino Cacho 	vicho 
  408	Jay Berkenbilt 	qjb 
  409	Jay Bonci 	jaybonci 
  410	Jean Baptiste Favre 	jbfavre 
  411	Jean-Michel Kelbert 	kelbert 
  412	Jean-Michel Vourgère 	nirgal 
  413	Jean-Philippe MENGUAL 	jpmengual 
  414	Jeff Breidenbach 	jab 
  415	Jeff Teunissen 	deek 
  416	Jeffrey Ratcliffe 	jjr 
  417	Jelmer Vernooij 	jelmer 
  418	Jeremy Bicha 	jbicha 
  419	Jeremy Bouse 	jbouse 
  420	Jeremy Lainé 	sharky 
  421	Jeroen Ploemen 	jcfp 
  422	Jeroen van Wolffelaar 	jeroen 
  423	Jerome Charaoui 	lavamind 
  424	Jerome Georges Benoit 	calculus 
  425	Jessica Clarke 	jrtc27 
  426	Jim Meyering 	meyering 
  427	Jimmy Kaplowitz 	jimmy 
  428	Jo Shields 	directhex 
  429	Joachim Breitner 	nomeata 
  430	Joachim Reichel 	reichel 
  431	Joao Eriberto Mota Filho 	eriberto 
  432	Jochen Sprickerhof 	jspricke 
  433	Joel Rosdahl 	joel 
  434	Joerg Jaspert 	joerg 
  435	Johann Felix Soden 	johfel 
  436	Johannes Schauer 	josch 
  437	John Francesco Ferlito 	johnf 
  438	John Goerzen 	jgoerzen 
  439	John H. IV Robinson 	jaqque 
  440	John Leuner 	jewel 
  441	John Lightsey 	lightsey 
  442	John Lines 	jlines 
  443	John Paul Adrian Glaubitz 	glaubitz 
  444	John Sullivan 	johns 
  445	John V. Belmonte 	jbelmonte 
  446	John Wright 	jsw 
  447	Jon Bernard 	jbernard 
  448	Jonas Genannt 	genannt 
  449	Jonas Meurer 	mejo 
  450	Jonas Smedegaard 	js 
  451	Jonathan Bustillos 	jathan 
  452	Jonathan Cristopher Carter 	jcc 
  453	Jonathan Dowland 	jmtd 
  454	Jonathan Marler 	jmarler 
  455	Jonathan McDowell 	noodles 
  456	Jonathan Nieder 	jrnieder 
  457	Jonathan Oxer 	jon 
  458	Jonathan Wiltshire 	jmw 
  459	Jonny Lamb 	jonny 
  460	Joost van Baal 	joostvb 
  461	Jordan Justen 	jljusten 
  462	Jordi Mallach 	jordi 
  463	Jorge Salamero Sanz 	bencer 
  464	Jose Luis Rivas Contreras 	ghostbar 
  465	Jose M. Calhariz 	calhariz 
  466	Jose Parrella 	bureado 
  467	Joseph Nahmias 	jello 
  468	Joshua Kwan 	joshk 
  469	Josip Rodin 	joy 
  470	Josselin Mouette 	joss 
  471	Josué Abarca 	jmaslibre 
  472	Josué Ortega 	josue 
  473	José L. Redrejo Rodríguez 	jredrejo 
  474	Juan Cespedes 	cespedes 
  475	Juan Gregorio Hernando Rivero 	ghe 
  476	Judit Foglszinger 	urbec 
  477	Julian Andres Klode 	jak 
  478	Julian Gilbey 	jdg 
  479	Juliane Friederike Holzt 	jule 
  480	Julien Cristau 	jcristau 
  481	Julien Patriarca 	leatherface 
  482	Julien Puydt 	jpuydt 
  483	Julián Moreno Patiño 	julian 
  484	Junichi Uekawa 	dancer 
  485	Jérémie Corbier 	jcorbier 
  486	Jérémy Bobbio 	lunar 
  487	Jérémy Lal 	kapouer 
  488	Jörgen Hägg 	jh 
  489	Kai Wasserbäch 	curan 
  490	Kai-Chung Yan 	seamlik 
  491	Kamal Mostafa 	kamal 
  492	Kanru Chen 	koster 
  493	Karen M Sandler 	karen 
  494	Kari Pahula 	kaol 
  495	Karsten Merker 	merker 
  496	Kartik Mistry 	kartik 
  497	Kees Cook 	kees 
  498	Keita Maehara 	maehara 
  499	Keith Packard 	keithp 
  500	Keng-Yu Lin 	kengyu 
  501	Kenneth J. Pronovici 	pronovic 
  502	Kevin Coyner 	kcoyner 
  503	Kevin M. Rosenberg 	kmr 
  504	Khalid Aziz 	khalid 
  505	Kilian Krause 	kilian 
  506	Klee Dienes 	klee 
  507	Konstantinos Margaritis 	markos 
  508	Krzysztof Krzyzaniak 	eloy 
  509	Kumar Appaiah 	akumar 
  510	Kunal Mehta 	legoktm 
  511	Kurt Kremitzki 	kkremitzki 
  512	Kurt Roeckx 	kroeckx 
  513	Kyle Robbertze 	paddatrapper 
  514	Kåre Thor Olsen 	kaare 
  515	Lamont Jones 	lamont 
  516	Lars Bahner 	bahner 
  517	Laszlo Kajan 	lkajan 
  518	Laura Arjona Reina 	larjona 
  519	Laurence Lane 	ljlane 
  520	Laurent Bigonville 	bigon 
  521	Lenart Janos 	ocsi 
  522	Leo Costela 	costela 
  523	Lev Lamberov 	dogsleg 
  524	Lionel Elie Mamane 	lmamane 
  525	Lior Kaplan 	kaplan 
  526	Lisa Baron 	jeffity 
  527	Lisandro Damián Nicanor Pérez Meyer 	lisandro 
  528	Loic Dachary 	loic 
  529	Loong Jin Chow 	hyperair 
  530	Louis-Philippe Véronneau 	pollo 
  531	Loïc Minier 	lool 
  532	Luca Boccassi 	bluca 
  533	Luca Bruno 	lucab 
  534	Luca Falavigna 	dktrkranz 
  535	Luca Filipozzi 	lfilipoz 
  536	Lucas Kanashiro 	kanashiro 
  537	Lucas Nussbaum 	lucas 
  538	Luciano Bello 	luciano 
  539	Ludovic Brenta 	lbrenta 
  540	Ludovic Drolez 	ldrolez 
  541	Ludovic Rousseau 	rousseau 
  542	Ludovico Cavedon 	cavedon 
  543	Ludovico Gardenghi 	garden 
  544	Luigi Gangitano 	luigi 
  545	Lukasz Jachowicz 	honey 
  546	Luke Faraone 	lfaraone 
  547	László Böszörményi 	gcs 
  548	M J Ray 	mjr 
  549	Maarten Bernardus Lankhorst 	maarten 
  550	Magnus Holmgren 	holmgren 
  551	Maitland Bottoms 	bottoms 
  552	Makoto OHURA 	ohura 
  553	Manoj Srivastava 	srivasta 
  554	Manuel A. Fernandez Montecelo 	mafm 
  555	Manuel Prinz 	manuel 
  556	Marc Dequènes 	duck 
  557	Marc Haber 	zugschlus 
  558	Marc Singer 	elf 
  559	Marcela Tiznado 	mlt 
  560	Marcelo Jorge Vieira 	metal 
  561	Marcin Kulisz 	kula 
  562	Marcin Owsiany 	porridge 
  563	Marcio de Souza Oliveira 	marciosouza 
  564	Marco Nenciarini 	mnencia 
  565	Marco Presi 	zufus 
  566	Marco d'Itri 	md 
  567	Marcos Fouces 	marcos 
  568	Margarita Manterola 	marga 
  569	Mario Joussen 	joussen 
  570	Mark Brown 	broonie 
  571	Mark Eichin 	eichin 
  572	Mark Hindley 	leepen 
  573	Mark Hymers 	mhy 
  574	Mark Lee Garrett 	lee 
  575	Mark Purcell 	msp 
  576	Mark Shuttleworth 	marks 
  577	Markus Frosch 	lazyfrosch 
  578	Markus Koschany 	apo 
  579	Markus Wanner 	markus 
  580	Martijn van Brummelen 	mvb 
  581	Martin A. Godisch 	godisch 
  582	Martin Albert 	ma 
  583	Martin Bagge 	brother 
  584	Martin Buck 	mbuck 
  585	Martin F. Krafft 	madduck 
  586	Martin Loschwitz 	madkiss 
  587	Martin Meredith 	mez 
  588	Martin Michlmayr 	tbm 
  589	Martin Pitt 	mpitt 
  590	Martin Quinson 	mquinson 
  591	Martin Wuertele 	maxx 
  592	Martin Zobel-Helas 	zobel 
  593	Martina Ferrari 	tina 
  594	Masahito Omote 	omote 
  595	Masanori Goto 	gotom 
  596	Masayuki Hatta 	mhatta 
  597	Mathias Behrle 	mbehrle 
  598	Mathieu Malaterre 	malat 
  599	Mathieu Parent 	sathieu 
  600	Matt Kraai 	kraai 
  601	Matt Taggart 	taggart 
  602	Matt Zimmerman 	mdz 
  603	Matteo F. Vescovi 	mfv 
  604	Matthew Brown 	mattb 
  605	Matthew Danish 	mrd 
  606	Matthew Garrett 	mjg59 
  607	Matthew Grant 	grantma 
  608	Matthew Palmer 	mpalmer 
  609	Matthew Vernon 	matthew 
  610	Matthias Klose 	doko 
  611	Matthias Klumpp 	mak 
  612	Matthias Urlichs 	smurf 
  613	Matthieu Caneill 	matthieucan 
  614	Mattia Dongili 	malattia 
  615	Mattia Rizzolo 	mattia 
  616	Mattias Ellert 	ellert 
  617	Mattias Nordstrom 	mnordstr 
  618	Mattias Wadenstein 	maswan 
  619	Max Vozeler 	xam 
  620	Maximilian Attems 	maks 
  621	Maximiliano Curia 	maxy 
  622	Mazen Neifer 	mazen 
  623	Mechtilde Stehmann 	mechtilde 
  624	Mehdi Dogguy 	mehdi 
  625	Miah Gregory 	mace 
  626	Micah Anderson 	micah 
  627	Micha Lenk 	micha 
  628	Michael Ablassmeier 	abi 
  629	Michael Banck 	mbanck 
  630	Michael Beattie 	mjb 
  631	Michael Biebl 	biebl 
  632	Michael Bramer 	grisu 
  633	Michael C. Schultheiss 	schultmc 
  634	Michael D. Mattice 	mattice 
  635	Michael Fladischer 	fladi 
  636	Michael Gilbert 	mgilbert 
  637	Michael Hanke 	mih 
  638	Michael Hudson-Doyle 	mwhudson 
  639	Michael Janssen 	jamuraa 
  640	Michael Jeanson 	mjeanson 
  641	Michael Lustfield 	mtecknology 
  642	Michael Meskes 	meskes 
  643	Michael Prokop 	mika 
  644	Michael Robin Crusoe 	crusoe 
  645	Michael Schiansky 	ms 
  646	Michael Schlueter 	schlue 
  647	Michael Schmitz 	schmitz 
  648	Michael Schutte 	michi 
  649	Michael Stapelberg 	stapelberg 
  650	Michael Stone 	mstone 
  651	Michael Tautschnig 	mt 
  652	Michael Tokarev 	mjt 
  653	Michael Vogt 	mvo 
  654	Michal Arbet 	kevko 
  655	Michal Cihar 	nijel 
  656	Miguel Landaeta 	nomadium 
  657	Mikael Djurfeldt 	mdj 
  658	Mike Gabriel 	sunweaver 
  659	Mike Hommey 	glandium 
  660	Mike Markley 	madhack 
  661	Mike Miller 	mtmiller 
  662	Mikhail Gusarov 	dottedmag 
  663	Milan Kupcevic 	milan 
  664	Milan Zamazal 	pdm 
  665	Ming-ting Yao Wei 	mwei 
  666	Miquel van Smoorenburg 	miquels 
  667	Mirco Bauer 	meebey 
  668	Miriam Ruiz 	miriam 
  669	Mo Zhou 	lumin 
  670	Modestas Vainius 	modax 
  671	Mohammed Adnène Trojette 	adn 
  672	Mohammed Sameer 	msameer 
  673	Molly de Blanc 	mollydb 
  674	Moray Allan 	moray 
  675	Moritz Muehlenhoff 	jmm 
  676	Morten Werner Forsbring 	werner 
  677	Muammar El Khatib 	muammar 
  678	Murat Demirten 	murat 
  679	Mutsumi Ishikawa 	ishikawa 
  680	Mònica Ramírez Arceda 	monica 
  681	NIIBE Yutaka 	gniibe 
  682	Nathan Scott 	nathans 
  683	Nathaniel Harrison Handler 	nhandler 
  684	Nattie Mayer-Hutchings 	nattie 
  685	Neil A. Schemenauer 	nas 
  686	Neil L. Roeth 	neil 
  687	Neil McGovern 	neilm 
  688	Neil Williams 	codehelp 
  689	Neutron Soutmun 	neutrons 
  690	Nicholas Breen 	nbreen 
  691	Nicholas D Steeves 	sten 
  692	Nick Morrott 	nickm 
  693	Nick Phillips 	nwp 
  694	Nicolas Bertolissio 	bertol 
  695	Nicolas Boulenguez 	nicolas 
  696	Nicolas Boullis 	nboullis 
  697	Nicolas Dandrimont 	olasd 
  698	Nicolas Mora 	babelouest 
  699	Niels Thykier 	nthykier 
  700	Niko Tyni 	ntyni 
  701	Nilesh Patra 	nilesh 
  702	Nils Boeffel 	lohner 
  703	Noah Meyerhans 	noahm 
  704	Nobuhiro Iwamatsu 	iwamatsu 
  705	Norbert Tretkowski 	nobse 
  706	Norbert Veber 	nveber 
  707	Noèl Köthe 	noel 
  708	Obey Arthur Liu 	arthurliu 
  709	Ognyan Kulev 	ogi 
  710	Ola Lundqvist 	opal 
  711	Ole Streicher 	olebole 
  712	Olek Wojnar 	olek 
  713	Olivier Sallou 	osallou 
  714	Olly Betts 	olly 
  715	Ondrej Sury 	ondrej 
  716	Ondřej Kobližek 	kobla 
  717	Ondřej Nový 	onovy 
  718	Ondřej Čertík 	certik 
  719	Osamu Aoki 	osamu 
  720	Otto Kekäläinen 	otto 
  721	Ove Kåven 	ovek 
  722	Pablo Lorenzzoni 	spectra 
  723	Paride Legovini 	paride 
  724	Pascal Hakim 	pasc 
  725	Patrick Franz 	deltaone 
  726	Patrick Matthäi 	pmatthaei 
  727	Patrick Ouellette 	pouelle 
  728	Patryk Cisek 	patryk 
  729	Patty Langasek 	harmoney 
  730	Paul Brossier 	piem 
  731	Paul Cannon 	pik 
  732	Paul Cupis 	cupis 
  733	Paul D. Bame 	bame 
  734	Paul Gevers 	elbrus 
  735	Paul Martin 	pm 
  736	Paul Richards Tagliamonte 	paultag 
  737	Paul Slootman 	paul 
  738	Paul Waite 	paulwaite 
  739	Paul Wise 	pabs 
  740	Paul van Tilburg 	paulvt 
  741	Paulo Henrique de Lima Santana 	phls 
  742	Per Andersson 	avtobiff 
  743	Peter De Schrijver 	p2 
  744	Peter Eisentraut 	petere 
  745	Peter Kelemen 	fuji 
  746	Peter Michael Green 	plugwash 
  747	Peter Palfrader 	weasel 
  748	Peter Pentchev 	roam 
  749	Peter S. Galbraith 	psg 
  750	Peter Van Eynde 	pvaneynd 
  751	Petr Cech 	cech 
  752	Petter Reinholdtsen 	pere 
  753	Phil Brooke 	pjb 
  754	Philip Hands 	philh 
  755	Philipp Huebner 	debalance 
  756	Philipp Hug 	hug 
  757	Philipp Kern 	pkern 
  758	Philipp Matthias Hahn 	pmhahn 
  759	Philippe Thierry 	philou 
  760	Pierre Chifflier 	pollux 
  761	Pierre Gruet 	pgt 
  762	Pierre-Elliott Bécue 	peb 
  763	Pino Toscano 	pino 
  764	Piotr Ożarowski 	piotr 
  765	Piotr Roszatycki 	dexter 
  766	Prach Pongpanich 	prach 
  767	Praveen Arimbrathodiyil 	praveen 
  768	Punit Agrawal 	punit 
  769	RISKO Gergely 	risko 
  770	Radovan Garabik 	garabik 
  771	Rafael Laboissiere 	rafael 
  772	Ralf Treinen 	treinen 
  773	Raphael Bossek 	bossekr 
  774	Raphael Geissert 	geissert 
  775	Raphaël Hertzog 	hertzog 
  776	Recai Oktas 	roktas 
  777	Reinhard Tartler 	siretart 
  778	Remi Vanicat 	vanicat 
  779	Rene Engelhard 	rene 
  780	Rene Mayorga 	rmayorga 
  781	Rene Mayrhofer 	rmayr 
  782	Rene Weber 	rweber 
  783	Rhonda D'Vine 	rhonda 
  784	Ricardo Mones Lastra 	mones 
  785	Riccardo Setti 	giskard 
  786	Richard A. Nelson 	cowboy 
  787	Richard Hecker 	hecker 
  788	Richard Kreckel 	kreckel 
  789	Richard Laager 	rlaager 
  790	Richard Michael Hartmann 	richih 
  791	Ritesh Raj Sarraf 	rrs 
  792	Rob Bradford 	robster 
  793	Rob Browning 	rlb 
  794	Robert Alan Larson 	blarson 
  795	Robert Edmonds 	edmonds 
  796	Robert Haist 	rha 
  797	Robert Luberda 	robert 
  798	Robert Millan 	rmh 
  799	Robert Woodcock 	rcw 
  800	Roberto C. Sanchez 	roberto 
  801	Roberto Lumbreras 	rover 
  802	Robie Basak 	rbasak 
  803	Roger Shimizu 	rosh 
  804	Roland Dreier 	rbd 
  805	Roland Fehrenbacher 	rfehren 
  806	Roland Marcus Rutschmann 	rudi 
  807	Roland Mas 	lolando 
  808	Roland Rosenfeld 	roland 
  809	Romain Francoise 	rfrancoise 
  810	Ron Lee 	ron 
  811	Ross Burton 	ross 
  812	Ross Gammon 	rossgammon 
  813	Ross Peachey 	rcp 
  814	Ross Vandegrift 	rvandegrift 
  815	Ruben Undheim 	rubund 
  816	Russ Allbery 	rra 
  817	Russell Coker 	etbe 
  818	Russell Stuart 	ras 
  819	Ryan Kavanagh 	rak 
  820	Ryan M. Golbeck 	rmgolbeck 
  821	SZ Lin 	szlin 
  822	Salvador Abreu 	spa 
  823	Salvatore Bonaccorso 	carnil 
  824	Sam Clegg 	samo 
  825	Sam Hartman 	hartmans 
  826	Sam Johnston 	samj 
  827	Samuel Henrique 	samueloph 
  828	Samuel Hocevar 	sho 
  829	Samuel Mimram 	smimram 
  830	Samuel Thibault 	sthibault 
  831	Sandro Knauß 	hefee 
  832	Sandro Tosi 	morph 
  833	Santiago Garcia Mantinan 	manty 
  834	Santiago Ruano Rincón 	santiago 
  835	Santiago Vila 	sanvila 
  836	Sascha Steinbiss 	satta 
  837	Scarlett Moore 	sgmoore 
  838	Scott James Remnant 	keybuk 
  839	Scott Kitterman 	kitterman 
  840	Scott Sheridan Howard 	showard 
  841	Scott Talbert 	swt2c 
  842	Sean Whitton 	spwhitton 
  843	Sebastiaan Couwenberg 	sebastic 
  844	Sebastian Andrzej Siewior 	bigeasy 
  845	Sebastian Dröge 	slomo 
  846	Sebastian Harl 	tokkee 
  847	Sebastian Ramacher 	sramacher 
  848	Sebastian Reichel 	sre 
  849	Sebastian Rittau 	srittau 
  850	Sebastien Bacher 	seb128 
  851	Sebastien Badia 	sbadia 
  852	Sebastien Delafond 	seb 
  853	Serafeim Zanikolas 	sez 
  854	Sergei Golovan 	sgolovan 
  855	Sergio Durigan Junior 	sergiodj 
  856	Sergio Talens-Oliag 	sto 
  857	Shachar Shemesh 	shachar 
  858	Shane Wegner 	shane 
  859	Shaun Jackman 	sjackman 
  860	Shengjing Zhu 	zhsj 
  861	Shigeo Noshiro 	noshiro 
  862	Shih-Yuan Lee 	fourdollars 
  863	Shugo Maeda 	shugo 
  864	Siegfried-Angel Gevatter Pujals 	sgevatter 
  865	Simon Horman 	horms 
  866	Simon Josefsson 	jas 
  867	Simon Kelley 	srk 
  868	Simon McVittie 	smcv 
  869	Simon Quigley 	tsimonq2 
  870	Simon Richter 	sjr 
  871	Sjoerd Simons 	sjoerd 
  872	Sophie Brun 	sophieb 
  873	Sruthi Chandran 	srud 
  874	Stefan Alfredsson 	alfs 
  875	Stefan Fritsch 	sf 
  876	Stefan Hornburg 	racke 
  877	Stefan Pfetzing 	dreamind 
  878	Stefano Rivera 	stefanor 
  879	Stefano Zacchiroli 	zack 
  880	Steffen Möller 	moeller 
  881	Stein Magnus Jodal 	jodal 
  882	Steinar H. Gunderson 	sesse 
  883	Stephan Lachnit 	stephanlachnit 
  884	Stephan Suerken 	absurd 
  885	Stephen Frost 	sfrost 
  886	Stephen Gelman 	ssgelm 
  887	Stephen Gran 	sgran 
  888	Stephen Kitt 	skitt 
  889	Stephen Leake 	stephe 
  890	Stephen R. Marenka 	smarenka 
  891	Steve Kemp 	skx 
  892	Steve Kostecke 	steve 
  893	Steve Kowalik 	stevenk 
  894	Steve Langasek 	vorlon 
  895	Steve McIntyre 	93sam 
  896	Steven Chamberlain 	stevenc 
  897	Steven Michael Robbins 	smr 
  898	Stig Sandbeck Mathisen 	ssm 
  899	Stuart Prescott 	stuart 
  900	Stuart Teasdale 	sdt 
  901	Stéphane Blondon 	sblondon 
  902	Stéphane Glondu 	glondu 
  903	Sudip Mukherjee 	sudip 
  904	Sune Vuorela 	sune 
  905	Sven Bartscher 	kritzefitz 
  906	Sven Eckelmann 	ecsv 
  907	Sven Hoexter 	hoexter 
  908	Sven Mueller 	sven 
  909	Sylvain Beucler 	beuc 
  910	Sylvestre Ledru 	sylvestre 
  911	Sébastien Villemot 	sebastien 
  912	Takaki Taniguchi 	takaki 
  913	Takatsugu Nokubi 	knok 
  914	Takeshi YAEGASHI 	yaegashi 
  915	Taku Yasui 	tach 
  916	Takuo KITAME 	kitame 
  917	Tamas Szerb 	toma 
  918	Tanguy Ortolo 	tanguy 
  919	Taowa 	taowa 
  920	Tatsuya Kinoshita 	tats 
  921	Teemu Hukkanen 	tjhukkan 
  922	Teruyuki Morimura 	morimura 
  923	Teus Benschop 	teusbenschop 
  924	Thaddeus H. Black 	thb 
  925	Thadeu Cascardo 	cascardo 
  926	Theodore Y. Ts'o 	tytso 
  927	Theppitak Karoonboonyanan 	thep 
  928	Thiago Andrade Marques 	andrade 
  929	Thibaut Jean-Claude Paumard 	thibaut 
  930	Thierry Randrianiriana 	thierry 
  931	Thijs Kinkhorst 	thijs 
  932	Thom May 	thom 
  933	Thomas Bushnell 	tb 
  934	Thomas Girard 	tgg 
  935	Thomas Goirand 	zigo 
  936	Thomas Koch 	thk 
  937	Thomas Lange 	lange 
  938	Thomas Preud'homme 	robotux 
  939	Thomas Schmidt 	tschmidt 
  940	Thomas Vincent 	tvincent 
  941	Thomas Wana 	greuff 
  942	Thomas Weber 	tweber 
  943	Thorsten Alteholz 	alteholz 
  944	Thorsten Glaser 	tg 
  945	Thorvald Natvig 	thorvald 
  946	Tiago Bortoletto Vaz 	tiago 
  947	Tianon Gravi 	tianon 
  948	Tim Cutts 	tjrc1 
  949	Tim Retout 	diocles 
  950	Tim Riker 	timr 
  951	Timo Aaltonen 	tjaalton 
  952	Timo Juhani Lindfors 	lindi 
  953	Timo Jyrinki 	timo 
  954	Timo Röhling 	roehling 
  955	Timo Weingärtner 	tiwe 
  956	Timothy Martin Potter 	tpot 
  957	Tobias Frost 	tobi 
  958	Tobias Grimm 	etobi 
  959	Tobias Hansen 	thansen 
  960	Tobias Quathamer 	toddy 
  961	Tollef Fog Heen 	tfheen 
  962	Tomas Fasth 	tomfa 
  963	Tomas Pospisek 	tpo 
  964	Tomasz Buchert 	tomasz 
  965	Tomasz Rybak 	serpent 
  966	Tommi Vainikainen 	tvainika 
  967	Toni Mueller 	toni 
  968	Tony Mancill 	tmancill 
  969	Torsten Landschoff 	torsten 
  970	Torsten Marek 	shlomme 
  971	Torsten Werner 	twerner 
  972	Tristan Seligmann 	mithrandi 
  973	Troy Heber 	troyh 
  974	Tzafrir Cohen 	tzafrir 
  975	Tássia Camões Araújo 	tassia 
  976	Ulises Vitulli 	dererk 
  977	Ulrich Dangel 	uli 
  978	Unit 193 	unit193 
  979	Utkarsh Gupta 	utkarsh 
  980	Uwe Hermann 	uwe 
  981	Uwe Kleine-König 	ukleinek 
  982	Uwe Steinmann 	steinm 
  983	Vagrant Cascadian 	vagrant 
  984	Valentin Vidic 	vvidic 
  985	Varun Hiremath 	varun 
  986	Vasudev Sathish Kamath 	vasudev 
  987	Victor Seva 	vseva 
  988	Vincent Bernat 	bernat 
  989	Vincent Cheng 	vcheng 
  990	Vincent Danjean 	vdanjean 
  991	Vincent Legout 	vlegout 
  992	Vincent Prat 	vivi 
  993	Vincent Sanders 	vince 
  994	Wartan Hachaturow 	wart 
  995	Werner Heuser 	wehe 
  996	Wesley W. Terpstra 	terpstra 
  997	Will Newton 	will 
  998	Willi Mann 	willi 
  999	William Blough 	bblough 
 1000	Wilmer van der Gaast 	lintux 
 1001	Wolfgang Borgert 	debacle 
 1002	Wookey 	wookey 
 1003	Wouter Verhelst 	wouter 
 1004	Xavier Lüthi 	xluthi 
 1005	Xavier Roche 	xavier 
 1006	Ximin Luo 	infinity0 
 1007	Yadd 	yadd 
 1008	Yann Dirson 	dirson 
 1009	Yaroslav Halchenko 	yoh 
 1010	Yasuhiro Araki 	ar 
 1011	Ying-Chun Liu 	paulliu 
 1012	Yukiharu Yabuki 	yyabuki 
 1013	YunQiang Su 	syq 
 1014	Yuuma Oohara 	oohara 
 1015	Yves-Alexis Perez 	corsac 
 1016	Zed Pobre 	zed 
 1017	Zlatan Todoric 	zlatan 
 1018	intrigeri 	intrigeri 
 1019	nicoo 	nicoo 
 1020	Étienne Mollier 	emollier 
 1021	Øystein Gisnås 	shaka 
