<define-tag pagetitle>DLA-2707-1 sogo</define-tag>
<define-tag report_date>2021-07-12</define-tag>
<define-tag secrefs>CVE-2021-33054</define-tag>
<define-tag packages>sogo</define-tag>
<define-tag isvulnerable>yes</define-tag>
<define-tag fixed>yes</define-tag>
<define-tag fixed-section>no</define-tag>

#use wml::debian::security

