<define-tag pagetitle>DLA-2847-1 mediawiki</define-tag>
<define-tag report_date>2021-12-21</define-tag>
<define-tag secrefs>CVE-2021-44858</define-tag>
<define-tag packages>mediawiki</define-tag>
<define-tag isvulnerable>yes</define-tag>
<define-tag fixed>yes</define-tag>
<define-tag fixed-section>no</define-tag>

#use wml::debian::security

