<define-tag pagetitle>DLA-2596-1 shadow</define-tag>
<define-tag report_date>2021-03-17</define-tag>
<define-tag secrefs>CVE-2017-12424 CVE-2017-20002 Bug#756630 Bug#914957</define-tag>
<define-tag packages>shadow</define-tag>
<define-tag isvulnerable>yes</define-tag>
<define-tag fixed>yes</define-tag>
<define-tag fixed-section>no</define-tag>

#use wml::debian::security

