<define-tag pagetitle>DLA-2587-1 privoxy</define-tag>
<define-tag report_date>2021-03-09</define-tag>
<define-tag secrefs>CVE-2021-20272 CVE-2021-20273 CVE-2021-20275 CVE-2021-20276</define-tag>
<define-tag packages>privoxy</define-tag>
<define-tag isvulnerable>yes</define-tag>
<define-tag fixed>yes</define-tag>
<define-tag fixed-section>no</define-tag>

#use wml::debian::security

