<define-tag pagetitle>DSA-5378-1 xen</define-tag>
<define-tag report_date>2023-3-25</define-tag>
<define-tag secrefs>CVE-2022-23824 CVE-2022-42331 CVE-2022-42332 CVE-2022-42333 CVE-2022-42334 Bug#1033297</define-tag>
<define-tag packages>xen</define-tag>
<define-tag isvulnerable>yes</define-tag>
<define-tag fixed>yes</define-tag>
<define-tag fixed-section>no</define-tag>

#use wml::debian::security



</dl>
