<define-tag pagetitle>DSA-5415-1 libreoffice</define-tag>
<define-tag report_date>2023-5-28</define-tag>
<define-tag secrefs>CVE-2023-0950 CVE-2023-2255</define-tag>
<define-tag packages>libreoffice</define-tag>
<define-tag isvulnerable>yes</define-tag>
<define-tag fixed>yes</define-tag>
<define-tag fixed-section>no</define-tag>

#use wml::debian::security



</dl>
