<define-tag pagetitle>DSA-5369-1 syslog-ng</define-tag>
<define-tag report_date>2023-3-05</define-tag>
<define-tag secrefs>CVE-2022-38725</define-tag>
<define-tag packages>syslog-ng</define-tag>
<define-tag isvulnerable>yes</define-tag>
<define-tag fixed>yes</define-tag>
<define-tag fixed-section>no</define-tag>

#use wml::debian::security



</dl>
