<define-tag pagetitle>DLA-1155-1 tzdata</define-tag>
<define-tag report_date>2017-10-31</define-tag>
<define-tag packages>tzdata</define-tag>
<define-tag isvulnerable>yes</define-tag>
<define-tag fixed>yes</define-tag>
<define-tag fixed-section>no</define-tag>

#use wml::debian::security

