<define-tag pagetitle>DLA-867-1 audiofile</define-tag>
<define-tag report_date>2017-3-23</define-tag>
<define-tag secrefs>CVE-2017-6829 CVE-2017-6830 CVE-2017-6831 CVE-2017-6832 CVE-2017-6833 CVE-2017-6834 CVE-2017-6835 CVE-2017-6836 CVE-2017-6837 CVE-2017-6838 CVE-2017-6839 Bug#857651</define-tag>
<define-tag packages>audiofile</define-tag>
<define-tag isvulnerable>yes</define-tag>
<define-tag fixed>yes</define-tag>
<define-tag fixed-section>no</define-tag>

#use wml::debian::security

