<define-tag pagetitle>DLA-988-1 rt-authen-externalauth</define-tag>
<define-tag report_date>2017-6-16</define-tag>
<define-tag secrefs>CVE-2017-5361</define-tag>
<define-tag packages>rt-authen-externalauth</define-tag>
<define-tag isvulnerable>yes</define-tag>
<define-tag fixed>yes</define-tag>
<define-tag fixed-section>no</define-tag>

#use wml::debian::security

