<define-tag pagetitle>DLA-3331-2 python-cryptography</define-tag>
<define-tag report_date>2023-02-21</define-tag>
<define-tag secrefs>CVE-2023-23931</define-tag>
<define-tag packages>python-cryptography</define-tag>
<define-tag isvulnerable>yes</define-tag>
<define-tag fixed>yes</define-tag>
<define-tag fixed-section>no</define-tag>

#use wml::debian::security
