<define-tag pagetitle>DLA-3323-1 c-ares</define-tag>
<define-tag report_date>2023-2-18</define-tag>
<define-tag secrefs>CVE-2022-4904 Bug#1031525</define-tag>
<define-tag packages>c-ares</define-tag>
<define-tag isvulnerable>yes</define-tag>
<define-tag fixed>yes</define-tag>
<define-tag fixed-section>no</define-tag>

#use wml::debian::security

