<define-tag pagetitle>DLA-3340-1 libgit2</define-tag>
<define-tag report_date>2023-02-23</define-tag>
<define-tag secrefs>CVE-2020-12278 CVE-2020-12279 CVE-2023-22742 Bug#1029368</define-tag>
<define-tag packages>libgit2</define-tag>
<define-tag isvulnerable>yes</define-tag>
<define-tag fixed>yes</define-tag>
<define-tag fixed-section>no</define-tag>

#use wml::debian::security

