<define-tag pagetitle>DLA-3337-1 mariadb-10.3</define-tag>
<define-tag report_date>2023-02-23</define-tag>
<define-tag secrefs>Bug#1008629</define-tag>
<define-tag packages>mariadb-10.3</define-tag>
<define-tag isvulnerable>yes</define-tag>
<define-tag fixed>yes</define-tag>
<define-tag fixed-section>no</define-tag>

#use wml::debian::security

