<define-tag pagetitle>DLA-3392-1 ruby-rack</define-tag>
<define-tag report_date>2023-04-17</define-tag>
<define-tag secrefs>CVE-2023-27530 CVE-2023-27539</define-tag>
<define-tag packages>ruby-rack</define-tag>
<define-tag isvulnerable>yes</define-tag>
<define-tag fixed>yes</define-tag>
<define-tag fixed-section>no</define-tag>

#use wml::debian::security

