<define-tag pagetitle>DLA-2180-1 file-roller</define-tag>
<define-tag report_date>2020-04-18</define-tag>
<define-tag secrefs>CVE-2020-11736 Bug#956638</define-tag>
<define-tag packages>file-roller</define-tag>
<define-tag isvulnerable>yes</define-tag>
<define-tag fixed>yes</define-tag>
<define-tag fixed-section>no</define-tag>

#use wml::debian::security

