<define-tag pagetitle>DLA-2291-1 ffmpeg</define-tag>
<define-tag report_date>2020-07-27</define-tag>
<define-tag secrefs>CVE-2019-13390 CVE-2019-17542 CVE-2020-13904</define-tag>
<define-tag packages>ffmpeg</define-tag>
<define-tag isvulnerable>yes</define-tag>
<define-tag fixed>yes</define-tag>
<define-tag fixed-section>no</define-tag>

#use wml::debian::security

