<define-tag pagetitle>DLA-2487-1 apt</define-tag>
<define-tag report_date>2020-12-10</define-tag>
<define-tag secrefs>CVE-2020-27350</define-tag>
<define-tag packages>apt</define-tag>
<define-tag isvulnerable>yes</define-tag>
<define-tag fixed>yes</define-tag>
<define-tag fixed-section>no</define-tag>

#use wml::debian::security

