<define-tag pagetitle>DLA-2330-1 jruby</define-tag>
<define-tag report_date>2020-08-16</define-tag>
<define-tag secrefs>CVE-2017-17742 CVE-2019-8320 CVE-2019-8321 CVE-2019-8322 CVE-2019-8323 CVE-2019-8324 CVE-2019-8325 CVE-2019-16201 CVE-2019-16254 CVE-2019-16255</define-tag>
<define-tag packages>jruby</define-tag>
<define-tag isvulnerable>yes</define-tag>
<define-tag fixed>yes</define-tag>
<define-tag fixed-section>no</define-tag>

#use wml::debian::security

