<define-tag pagetitle>DLA-2155-1 tomcat8</define-tag>
<define-tag report_date>2020-03-24</define-tag>
<define-tag secrefs>CVE-2019-12418</define-tag>
<define-tag packages>tomcat8</define-tag>
<define-tag isvulnerable>yes</define-tag>
<define-tag fixed>yes</define-tag>
<define-tag fixed-section>no</define-tag>

#use wml::debian::security

