<define-tag pagetitle>DLA-2495-1 tomcat8</define-tag>
<define-tag report_date>2020-12-16</define-tag>
<define-tag secrefs>CVE-2020-17527</define-tag>
<define-tag packages>tomcat8</define-tag>
<define-tag isvulnerable>yes</define-tag>
<define-tag fixed>yes</define-tag>
<define-tag fixed-section>no</define-tag>

#use wml::debian::security

