<define-tag pagetitle>DLA-2125-1 collabtive</define-tag>
<define-tag report_date>2020-2-28</define-tag>
<define-tag secrefs>CVE-2015-0258</define-tag>
<define-tag packages>collabtive</define-tag>
<define-tag isvulnerable>yes</define-tag>
<define-tag fixed>yes</define-tag>
<define-tag fixed-section>no</define-tag>

#use wml::debian::security

