<define-tag pagetitle>DLA-1268-1 p7zip</define-tag>
<define-tag report_date>2018-2-2</define-tag>
<define-tag secrefs>CVE-2017-17969 Bug#888297</define-tag>
<define-tag packages>p7zip</define-tag>
<define-tag isvulnerable>yes</define-tag>
<define-tag fixed>yes</define-tag>
<define-tag fixed-section>no</define-tag>

#use wml::debian::security

