<define-tag pagetitle>DLA-1304-1 zsh</define-tag>
<define-tag report_date>2018-3-9</define-tag>
<define-tag secrefs>CVE-2014-10070 CVE-2014-10071 CVE-2014-10072 CVE-2016-10714 CVE-2017-18206</define-tag>
<define-tag packages>zsh</define-tag>
<define-tag isvulnerable>yes</define-tag>
<define-tag fixed>yes</define-tag>
<define-tag fixed-section>no</define-tag>

#use wml::debian::security

