<define-tag pagetitle>DLA-1454-1 network-manager-vpnc</define-tag>
<define-tag report_date>2018-7-31</define-tag>
<define-tag secrefs>CVE-2018-10900 Bug#904255</define-tag>
<define-tag packages>network-manager-vpnc</define-tag>
<define-tag isvulnerable>yes</define-tag>
<define-tag fixed>yes</define-tag>
<define-tag fixed-section>no</define-tag>

#use wml::debian::security

