<define-tag pagetitle>DSA-4563-1 webkit2gtk</define-tag>
<define-tag report_date>2019-11-12</define-tag>
<define-tag secrefs>CVE-2019-8812 CVE-2019-8814</define-tag>
<define-tag packages>webkit2gtk</define-tag>
<define-tag isvulnerable>yes</define-tag>
<define-tag fixed>yes</define-tag>
<define-tag fixed-section>no</define-tag>

#use wml::debian::security



</dl>
