# Translators: the following paragraph exists (in this or a similar form) several times in webwml,
# so please try to keep translations consistent. See:
# ./CD/http-ftp/index.wml
# ./CD/live/index.wml
# ./CD/netinst/index.wml
# ./CD/torrent-cd/index.wml
# ./distrib/index.wml
# ./distrib/netinst.wml
# ./releases/<release-codename>/debian-installer/index.wml
# ./devel/debian-installer/index.wml
#
<div id="firmware_nonfree" class="important">
<p>
Hvis noe av maskinvaren i systemet ditt <strong>krever ufri fastvare for å
laste inn</strong> med enhetsdriveren, så kan du bruke en av
<a href="https://cdimage.debian.org/cdimage/unofficial/non-free/firmware/stable/current/">tar-ballene
med vanlig fastvare-pakker</a> eller laste ned et <strong>uoffisielt</strong> 
bilde som inkluderer disse <strong>ufrie</strong> fastvarene. Instruksjoner om
hvordan du skal bruke disse tar-ballene og generell informasjon om innlasting
av fastvare under en installasjon finner du i 
<a href="../releases/stable/amd64/ch06s04">installasjonsguiden</a>.
</p>
<p>
<a href="https://cdimage.debian.org/cdimage/unofficial/non-free/cd-including-firmware/current/">Uoffisielle
installasjonsbilder for <q>stable</q> med fastvare inkludert</a>
</p>
</div>
