<define-tag pagetitle>DSA-5299-1 openexr</define-tag>
<define-tag report_date>2022-12-10</define-tag>
<define-tag secrefs>CVE-2021-3598 CVE-2021-3605 CVE-2021-3933 CVE-2021-3941 CVE-2021-23215 CVE-2021-26260 CVE-2021-45942 Bug#992703 Bug#990450 Bug#990899 Bug#1014828 Bug#1014828</define-tag>
<define-tag packages>openexr</define-tag>
<define-tag isvulnerable>yes</define-tag>
<define-tag fixed>yes</define-tag>
<define-tag fixed-section>no</define-tag>

#use wml::debian::security



</dl>
