<define-tag pagetitle>DSA-5070-1 cryptsetup</define-tag>
<define-tag report_date>2022-2-10</define-tag>
<define-tag secrefs>CVE-2021-4122 Bug#1003686 Bug#949336</define-tag>
<define-tag packages>cryptsetup</define-tag>
<define-tag isvulnerable>yes</define-tag>
<define-tag fixed>yes</define-tag>
<define-tag fixed-section>no</define-tag>

#use wml::debian::security



</dl>
