<define-tag pagetitle>DSA-5220-1 wpewebkit</define-tag>
<define-tag report_date>2022-8-27</define-tag>
<define-tag secrefs>CVE-2022-32893</define-tag>
<define-tag packages>wpewebkit</define-tag>
<define-tag isvulnerable>yes</define-tag>
<define-tag fixed>yes</define-tag>
<define-tag fixed-section>no</define-tag>

#use wml::debian::security



</dl>
