<define-tag pagetitle>DSA-5084-1 wpewebkit</define-tag>
<define-tag report_date>2022-2-19</define-tag>
<define-tag secrefs>CVE-2022-22589 CVE-2022-22590 CVE-2022-22592 CVE-2022-22620</define-tag>
<define-tag packages>wpewebkit</define-tag>
<define-tag isvulnerable>yes</define-tag>
<define-tag fixed>yes</define-tag>
<define-tag fixed-section>no</define-tag>

#use wml::debian::security



</dl>
