<define-tag pagetitle>DSA-5095-1 linux</define-tag>
<define-tag report_date>2022-3-09</define-tag>
<define-tag secrefs>CVE-2020-36310 CVE-2022-0001 CVE-2022-0002 CVE-2022-0487 CVE-2022-0492 CVE-2022-0617 CVE-2022-25636 Bug#990279</define-tag>
<define-tag packages>linux</define-tag>
<define-tag isvulnerable>yes</define-tag>
<define-tag fixed>yes</define-tag>
<define-tag fixed-section>no</define-tag>

#use wml::debian::security



</dl>
