<define-tag pagetitle>DSA-5189-1 gsasl</define-tag>
<define-tag report_date>2022-7-24</define-tag>
<define-tag secrefs>CVE-2022-2469</define-tag>
<define-tag packages>gsasl</define-tag>
<define-tag isvulnerable>yes</define-tag>
<define-tag fixed>yes</define-tag>
<define-tag fixed-section>no</define-tag>

#use wml::debian::security



</dl>
