<define-tag pagetitle>DLA-1972-1 mosquitto</define-tag>
<define-tag report_date>2019-10-26</define-tag>
<define-tag secrefs>CVE-2017-7655 CVE-2018-12550 CVE-2018-12551 CVE-2019-11779</define-tag>
<define-tag packages>mosquitto</define-tag>
<define-tag isvulnerable>yes</define-tag>
<define-tag fixed>yes</define-tag>
<define-tag fixed-section>no</define-tag>

#use wml::debian::security

