<define-tag pagetitle>DLA-1776-1 librecad</define-tag>
<define-tag report_date>2019-5-5</define-tag>
<define-tag secrefs>CVE-2018-19105 Bug#928477</define-tag>
<define-tag packages>librecad</define-tag>
<define-tag isvulnerable>yes</define-tag>
<define-tag fixed>yes</define-tag>
<define-tag fixed-section>no</define-tag>

#use wml::debian::security

